module bitbucket.org/idomdavis/gosecure/v2

go 1.19

require (
	bitbucket.org/idomdavis/gofigure v0.3.1
	github.com/alexedwards/argon2id v0.0.0-20230305115115-4b3c3280a736
	github.com/stretchr/testify v1.8.2
	golang.org/x/crypto v0.10.0
)

require (
	github.com/davecgh/go-spew v1.1.1 // indirect
	github.com/pmezard/go-difflib v1.0.0 // indirect
	golang.org/x/sys v0.9.0 // indirect
	gopkg.in/yaml.v3 v3.0.1 // indirect
)
